Comparing countries with macro-level data – Testing big ideas with simple methods
…
You see that we have, in principle, data for almost all of Europe and the other advanced democracies around the globe from the 1960s onwards. What this does not show, however, is that we only have data for the Central and Eastern European countries (Poland, Bulgaria, etc.) from 1990 on, after the collapse of the Soviet Union and the Warsaw Pact:

cpds |> 
  filter(country == "Poland") |> 
  select(year,country)

# A tibble: 32 × 2
    year country
   <dbl> <chr>  
 1  1991 Poland 
 2  1992 Poland 
 3  1993 Poland 
 4  1994 Poland 
 5  1995 Poland 
 6  1996 Poland 
 7  1997 Poland 
 8  1998 Poland 
 9  1999 Poland 
10  2000 Poland 
# ℹ 22 more rows
…
You can look at average relationships (correlations) between countries

Each of them tells you a different part of the entire story that is contained in the data. We will go over each of them and see how to aggregate and visualize the data. In most cases, your two best friends are the group_by() and summarize() functions from dplyr.

Aggregating by year to show general trends

Sometimes, we want to show to our readers general trends that existed more or less in all countries in the dataset over a given period of time. For example, we might want to show general phases of economic boom and crisis that affected all the advanced democracies, without looking specifically at individual countries. To do that, we can calculate the average rate of economic growth over all countries per year and visualize the result.

This is easy to do with group_by() and summarize():

cpds |> 
  group_by(year) |> 
  summarize(avg_growth = mean(realgdpgr, na.rm = T))

# A tibble: 33 × 2
    year avg_growth
   <dbl>      <dbl>
 1  1990      2.76 
 2  1991     -0.473
 3  1992     -0.372
 4  1993      0.124
 5  1994      3.14 
 6  1995      3.56 
 7  1996      3.23 
 8  1997      3.81 
 9  1998      3.78 
10  1999      2.94 
# ℹ 23 more rows
…
The graph clearly shows the last two big economic crises, the 2008 Financial Crisis (a.k.a., Great Recession) and the COVID-19 pandemic, but also the economic crisis of the early 1990s.

Important

You may notice that we do not save the resulting aggregated dataset in a separate object — and we most definitely do not overwrite the original dataset with the aggregated version. We simply aggregate the data “on the fly”, visualize the result, and then let the aggregated version disappear into the ether. Sometimes, you might want to save an aggregated dataset so that you can use it in later analyses, but in that case you need to make sure that you give it a different name.

It is also important to be aware that we can also calculate other types of summary statistics like the median, the variance, or the standard deviation within summarize(). The latter is very helpful if we want to show not only average trends but also the variation around the trend line. To do that, we simply add the summary statistic we want within summarize():

cpds |> 
  group_by(year) |> 
  summarise(avg_growth = mean(realgdpgr, na.rm = T),
            sd_growth = sd(realgdpgr, na.rm = T))

# A tibble: 33 × 3
    year avg_growth sd_growth
   <dbl>      <dbl>     <dbl>
 1  1990      2.76       2.17
 2  1991     -0.473      5.21
 3  1992     -0.372      5.28
 4  1993      0.124      4.14
 5  1994      3.14       2.93
 6  1995      3.56       2.29
 7  1996      3.23       1.75
 8  1997      3.81       4.40
 9  1998      3.78       2.33
10  1999      2.94       3.05
# ℹ 23 more rows
…
One new lesson we learn is that although the average growth rate dipped into the negative in the early 1990s, there was also increased variation in growth rates — the range got visibly bigger — which indicates that not all countries were equally strongly affected by the crisis.

Aggregating by country to show differences

Another thing we might be interested in is which countries had, on average, the highest or lowest growth rates in the period between 1990 and today. To see this, we again use group_by() and summarize(), but we now group by country instead of year:

cpds |> 
  group_by(country) |> 
  summarise(avg_growth = mean(realgdpgr, na.rm = T))

# A tibble: 36 × 2
   country        avg_growth
   <chr>               <dbl>
 1 Australia            2.89
 2 Austria              1.87
 3 Belgium              1.81
 4 Bulgaria             1.94
 5 Canada               2.13
 6 Croatia              2.34
 7 Cyprus               3.41
 8 Czech Republic       1.58
 9 Denmark              1.76
10 Estonia              4.02
# ℹ 26 more rows
…
You see that Ireland (the Irish Tiger) had by far the highest growth rate since the 1990s, followed by Malta and Estonia. Italy, Greece, and Japan had clearly the lowest average rates of growth.

Comparing selected countries over time

Sometimes, for example when you do a comparative case study of a few selected countries, you want to show relevant developments in those countries, without any aggregation. This is obviously also possible with this type of data, and here the filter() function is your best friend.

Let’s say we want to compare the development of economic growth rates in the four largest Nordic countries (Denmark, Finland, Norway, Sweden) since the 1990s. In that case, we just need to use filter() to subset the data to those countries:

cpds |> 
  select(country,year,realgdpgr) |> # this is technically not necessary, but 
  # sometimes useful to avoid losing overview over the data
  filter(country %in% c("Denmark","Finland","Sweden","Norway"))

# A tibble: 132 × 3
   country  year realgdpgr
   <chr>   <dbl>     <dbl>
 1 Denmark  1990    1.48  
 2 Denmark  1991    1.39  
 3 Denmark  1992    1.96  
 4 Denmark  1993    0.0107
 5 Denmark  1994    5.33  
 6 Denmark  1995    3.03  
 7 Denmark  1996    2.90  
 8 Denmark  1997    3.26  
 9 Denmark  1998    2.21  
10 Denmark  1999    2.95  
# ℹ 122 more rows
…
Showing bivariate relationships across countries

Although the development of a single variable over time or its variation between countries is often relevant to look at, we are in most cases primarily interested in relationships between variables: Does one variable affect the other, or are they at least correlated with each other?

One wat to check for bivariate relationships between two variables is to aggregate both variables by country and then use a scatterplot to visualize the result.

Let’s say we wanted to test the hypothesis that a stronger presence of left parties in government is bad for economic growth (as some people claim). The gov_left1 variable from the CDPS dataset gives us the share of cabinet posts that are held by left-of-center parties in a given year and country, and we can simply aggregate this variable along with the one measuring economic growth within summarize():

cpds |> 
  group_by(country) |> 
  summarise(avg_growth = mean(realgdpgr, na.rm = T),
            avg_leftgov = mean(gov_left1, na.rm = T)) 

# A tibble: 36 × 3
   country        avg_growth avg_leftgov
   <chr>               <dbl>       <dbl>
 1 Australia            2.89        38.1
 2 Austria              1.87        33.8
 3 Belgium              1.81        38.2
 4 Bulgaria             1.94        16.2
 5 Canada               2.13         0  
 6 Croatia              2.34        20.7
 7 Cyprus               3.41        13.8
 8 Czech Republic       1.58        28.3
 9 Denmark              1.76        38.8
10 Estonia              4.02        21.7
# ℹ 26 more rows
…
