Merging macro-level data – Testing big ideas with simple methods
…
A third option is to use the ccodecow variable that is contained in the QoG dataset (the one that caused problems earlier). This variable contains standardized country codes (in the form of numbers) from the Correlates of War project (COW; see https://correlatesofwar.org/). The advantage with using this variable is that it is already contained in one of the datasets, the QoG data. More importantly, the countrycode package “speaks” COW codes, so we can use the countrycode() function to convert the country names in the UCDP dataset to COW codes – and then we have everything we need in place!

To create COW country codes in the UCDP dataset, we specify that we want countrycode() to create a new variable called ccodcow in the UCDP dataset, and to do this by transforming the English country names contained in the country_cy variable into COW numerical codes (cown):

ged$ccodecow <- countrycode::countrycode(ged$country_cy,
                         origin = "country.name.en",
                         destination = "cown")

We can take a quick look at the UCDP dataset to see how the new variable looks like:4

ged %>% 
  relocate(country_cy,year_cy,ccodecow)

# A tibble: 6,928 × 75
   country_cy  year_cy ccodecow country_id_cy region_cy main_govt_name_cy       
   <chr>         <dbl>    <dbl>         <dbl> <chr>     <chr>                   
 1 Afghanistan    1989      700           700 Asia      Government of Afghanist…
 2 Afghanistan    1990      700           700 Asia      Government of Afghanist…
 3 Afghanistan    1991      700           700 Asia      Government of Afghanist…
 4 Afghanistan    1992      700           700 Asia      Government of Afghanist…
 5 Afghanistan    1993      700           700 Asia      Government of Afghanist…
 6 Afghanistan    1994      700           700 Asia      Government of Afghanist…
 7 Afghanistan    1995      700           700 Asia      Government of Afghanist…
 8 Afghanistan    1996      700           700 Asia      Government of Afghanist…
 9 Afghanistan    1997      700           700 Asia      Government of Afghanist…
10 Afghanistan    1998      700           700 Asia      Government of Afghanist…
# ℹ 6,918 more rows
# ℹ 69 more variables: sb_exist_cy <dbl>, sb_dyad_count_cy <dbl>,
#   sb_dyad_ids_cy <chr>, sb_dyad_names_cy <chr>, sb_deaths_parties_cy <dbl>,
#   sb_deaths_civilians_cy <dbl>, sb_deaths_unknown_cy <dbl>,
#   sb_total_deaths_best_cy <dbl>, sb_total_deaths_high_cy <dbl>,
#   sb_total_deaths_low_cy <dbl>, sb_intrastate_exist_cy <dbl>,
#   sb_intrastate_dyad_count_cy <dbl>, sb_intrastate_dyad_ids_cy <chr>, …
…
